<svg xmlns="http://www.w3.org/2000/svg" width="300.656" height="46.344" viewBox="0 0 300.656 46.344">
  <metadata><?xpacket begin="﻿" id="W5M0MpCehiHzreSzNTczkc9d"?>
<x:xmpmeta xmlns:x="adobe:ns:meta/" x:xmptk="Adobe XMP Core 5.6-c140 79.160451, 2017/05/06-01:08:21        ">
   <rdf:RDF xmlns:rdf="http://www.w3.org/1999/02/22-rdf-syntax-ns#">
      <rdf:Description rdf:about=""/>
   </rdf:RDF>
</x:xmpmeta>
                                                                                                    
                                                                                                    
                                                                                                    
                                                                                                    
                                                                                                    
                                                                                                    
                                                                                                    
                                                                                                    
                                                                                                    
                                                                                                    
                                                                                                    
                                                                                                    
                                                                                                    
                                                                                                    
                                                                                                    
                                                                                                    
                                                                                                    
                                                                                                    
                                                                                                    
                                                                                                    
                           
<?xpacket end="w"?></metadata>
<defs>
    <style>
      .cls-1 {
        fill: #003f95;
        fill-rule: evenodd;
      }
    </style>
  </defs>
  <path id="Logo" class="cls-1" d="M201.169,76.05V69.522H188.241V56.146h11.264V50H188.241V36.626h12.928V30.482H181.713V76.05h19.456Zm14.335,0,5.632-15.36,5.7,15.36h6.912l-9.408-23.872,8.7-21.7h-6.912l-4.992,13.5-4.928-13.5H209.3l8.512,21.7L208.592,76.05H215.5Zm34.24-15.936,3.2-16.512h0.128l3.2,16.512h-6.528ZM246.672,76.05l1.92-9.792h8.9l1.92,9.792h6.528L255.76,30.482h-5.44L240.144,76.05h6.528Zm35.392,0V48.338h0.128l6.4,19.584h3.264l6.464-19.584h0.128V76.05h6.528V30.482H298.64L290.32,54.61h-0.128l-8.384-24.128h-6.272V76.05h6.528Zm41.983,0V58.258h3.328a12.068,12.068,0,0,0,5.889-1.248,9.523,9.523,0,0,0,3.583-3.488,10.842,10.842,0,0,0,1.5-3.968,32.3,32.3,0,0,0,.352-5.184,26.2,26.2,0,0,0-.64-6.5,9.759,9.759,0,0,0-2.3-4.192,9.106,9.106,0,0,0-3.712-2.5,14.56,14.56,0,0,0-4.736-.7h-9.792V76.05h6.528Zm3.392-39.424a6.1,6.1,0,0,1,2.944.576,3.65,3.65,0,0,1,1.537,1.664,6.592,6.592,0,0,1,.575,2.528q0.063,1.44.064,3.04,0,1.728-.1,3.136a5.821,5.821,0,0,1-.608,2.368,3.618,3.618,0,0,1-1.6,1.6,6.675,6.675,0,0,1-3.072.576h-3.136V36.626h3.392ZM369.423,76.05V69.522H356.5V30.482h-6.528V76.05h19.456Zm30.08,0V69.522H386.575V56.146h11.264V50H386.575V36.626H399.5V30.482H380.047V76.05H399.5Zm16.768,0V69.522h-6.528V76.05h6.528Zm26.367-12.992V65.3a5.7,5.7,0,0,1-.384,2.24,3.9,3.9,0,0,1-.96,1.408,4.1,4.1,0,0,1-1.376.736,4.723,4.723,0,0,1-1.376.224,3.4,3.4,0,0,1-3.1-1.344,6.033,6.033,0,0,1-.864-3.328v-23.3a8.053,8.053,0,0,1,.8-3.808q0.8-1.5,3.232-1.5a3.527,3.527,0,0,1,2.944,1.408,5.287,5.287,0,0,1,1.088,3.328v2.176h6.528v-2.56a11.789,11.789,0,0,0-.8-4.384,10.716,10.716,0,0,0-2.208-3.488A9.9,9.9,0,0,0,438.67,30.1a11.293,11.293,0,0,0-4.32.8,10.123,10.123,0,0,0-3.36,2.208,9.789,9.789,0,0,0-2.176,3.328,11.1,11.1,0,0,0-.768,4.16V65.682a11.659,11.659,0,0,0,.992,5.152,9.9,9.9,0,0,0,2.528,3.3,8.92,8.92,0,0,0,3.456,1.792,14.625,14.625,0,0,0,3.776.512,9.652,9.652,0,0,0,4.064-.864,10.646,10.646,0,0,0,3.3-2.336,11.082,11.082,0,0,0,2.208-3.36,10.15,10.15,0,0,0,.8-4V63.058h-6.528Zm17.856,2.24a11.536,11.536,0,0,0,.96,4.928,9.761,9.761,0,0,0,2.56,3.392A10.252,10.252,0,0,0,467.5,75.73a11.355,11.355,0,0,0,7.872,0,10.97,10.97,0,0,0,3.552-2.112,10.16,10.16,0,0,0,2.5-3.392,11.536,11.536,0,0,0,.96-4.928V41.234a11.645,11.645,0,0,0-.96-4.864,10.72,10.72,0,0,0-2.5-3.52A11.5,11.5,0,0,0,467.5,30.8a10.828,10.828,0,0,0-3.488,2.048,10.277,10.277,0,0,0-2.56,3.52,11.645,11.645,0,0,0-.96,4.864V65.3Zm6.528-24.064a4.339,4.339,0,0,1,1.312-3.488,4.861,4.861,0,0,1,6.208,0,4.343,4.343,0,0,1,1.312,3.488V65.3a4.34,4.34,0,0,1-1.312,3.488,4.861,4.861,0,0,1-6.208,0,4.337,4.337,0,0,1-1.312-3.488V41.234Z" transform="translate(-181.719 -30.094)"/>
</svg>
